<?xml version="1.0" encoding="UTF-8" standalone="no"?>
<graphml xmlns="http://graphml.graphdrawing.org/xmlns" xmlns:java="http://www.yworks.com/xml/yfiles-common/1.0/java" xmlns:sys="http://www.yworks.com/xml/yfiles-common/markup/primitives/2.0" xmlns:x="http://www.yworks.com/xml/yfiles-common/markup/2.0" xmlns:xsi="http://www.w3.org/2001/XMLSchema-instance" xmlns:y="http://www.yworks.com/xml/graphml" xmlns:yed="http://www.yworks.com/xml/yed/3" xsi:schemaLocation="http://graphml.graphdrawing.org/xmlns http://www.yworks.com/xml/schema/graphml/1.1/ygraphml.xsd">
  <!--Created by yEd 3.18.1-->
  <key attr.name="Beschreibung" attr.type="string" for="graph" id="d0"/>
  <key for="port" id="d1" yfiles.type="portgraphics"/>
  <key for="port" id="d2" yfiles.type="portgeometry"/>
  <key for="port" id="d3" yfiles.type="portuserdata"/>
  <key attr.name="url" attr.type="string" for="node" id="d4"/>
  <key attr.name="description" attr.type="string" for="node" id="d5"/>
  <key for="node" id="d6" yfiles.type="nodegraphics"/>
  <key for="graphml" id="d7" yfiles.type="resources"/>
  <key attr.name="url" attr.type="string" for="edge" id="d8"/>
  <key attr.name="description" attr.type="string" for="edge" id="d9"/>
  <key for="edge" id="d10" yfiles.type="edgegraphics"/>
  <graph edgedefault="directed" id="G">
    <data key="d0"/>
    <node id="n0">
      <data key="d5"/>
      <data key="d6">
        <y:SVGNode>
          <y:Geometry height="133.88799667358398" width="103.5270004272461" x="237.73654556274414" y="504.00630378723145"/>
          <y:Fill color="#CCCCFF" transparent="false"/>
          <y:BorderStyle color="#000000" type="line" width="1.0"/>
          <y:NodeLabel alignment="center" autoSizePolicy="content" fontFamily="Dialog" fontSize="12" fontStyle="plain" hasBackgroundColor="false" hasLineColor="false" height="17.962890625" horizontalTextPosition="center" iconTextGap="4" modelName="custom" textColor="#000000" verticalTextPosition="bottom" visible="true" width="53.359375" x="25.083812713623047" xml:space="preserve" y="137.88799667358398">Speicher<y:LabelModel><y:SmartNodeLabelModel distance="4.0"/></y:LabelModel><y:ModelParameter><y:SmartNodeLabelModelParameter labelRatioX="0.0" labelRatioY="-0.5" nodeRatioX="0.0" nodeRatioY="0.5" offsetX="0.0" offsetY="4.0" upX="0.0" upY="-1.0"/></y:ModelParameter></y:NodeLabel>
          <y:SVGNodeProperties usingVisualBounds="true"/>
          <y:SVGModel svgBoundsPolicy="0">
            <y:SVGContent refid="1"/>
          </y:SVGModel>
        </y:SVGNode>
      </data>
    </node>
    <node id="n1">
      <data key="d6">
        <y:SVGNode>
          <y:Geometry height="110.04969787597656" width="236.99996948242188" x="171.00006103515625" y="315.9006042480469"/>
          <y:Fill color="#CCCCFF" transparent="false"/>
          <y:BorderStyle color="#000000" type="line" width="1.0"/>
          <y:NodeLabel alignment="center" autoSizePolicy="content" fontFamily="Dialog" fontSize="12" fontStyle="plain" hasBackgroundColor="false" hasLineColor="false" height="17.962890625" horizontalTextPosition="center" iconTextGap="4" modelName="sandwich" modelPosition="s" textColor="#000000" verticalTextPosition="bottom" visible="true" width="33.4609375" x="101.76951599121094" xml:space="preserve" y="114.04969787597656">Aktiv</y:NodeLabel>
          <y:SVGNodeProperties usingVisualBounds="true"/>
          <y:SVGModel svgBoundsPolicy="0">
            <y:SVGContent refid="2"/>
          </y:SVGModel>
        </y:SVGNode>
      </data>
    </node>
    <node id="n2">
      <data key="d6">
        <y:SVGNode>
          <y:Geometry height="110.04969787597656" width="236.99996948242188" x="721.5000610351562" y="315.9006042480469"/>
          <y:Fill color="#CCCCFF" transparent="false"/>
          <y:BorderStyle color="#000000" type="line" width="1.0"/>
          <y:NodeLabel alignment="center" autoSizePolicy="content" fontFamily="Dialog" fontSize="12" fontStyle="plain" hasBackgroundColor="false" hasLineColor="false" height="17.962890625" horizontalTextPosition="center" iconTextGap="4" modelName="sandwich" modelPosition="s" textColor="#000000" verticalTextPosition="bottom" visible="true" width="33.4609375" x="101.76951599121094" xml:space="preserve" y="114.04969787597656">Akitv</y:NodeLabel>
          <y:SVGNodeProperties usingVisualBounds="true"/>
          <y:SVGModel svgBoundsPolicy="0">
            <y:SVGContent refid="2"/>
          </y:SVGModel>
        </y:SVGNode>
      </data>
    </node>
    <node id="n3">
      <data key="d5"/>
      <data key="d6">
        <y:SVGNode>
          <y:Geometry height="133.88799667358398" width="103.5270004272461" x="788.2365455627441" y="504.00630378723145"/>
          <y:Fill color="#CCCCFF" transparent="false"/>
          <y:BorderStyle color="#000000" type="line" width="1.0"/>
          <y:NodeLabel alignment="center" autoSizePolicy="content" fontFamily="Dialog" fontSize="12" fontStyle="plain" hasBackgroundColor="false" hasLineColor="false" height="17.962890625" horizontalTextPosition="center" iconTextGap="4" modelName="custom" textColor="#000000" verticalTextPosition="bottom" visible="true" width="53.359375" x="25.083812713623047" xml:space="preserve" y="137.88799667358398">Speicher<y:LabelModel><y:SmartNodeLabelModel distance="4.0"/></y:LabelModel><y:ModelParameter><y:SmartNodeLabelModelParameter labelRatioX="0.0" labelRatioY="-0.5" nodeRatioX="0.0" nodeRatioY="0.5" offsetX="0.0" offsetY="4.0" upX="0.0" upY="-1.0"/></y:ModelParameter></y:NodeLabel>
          <y:SVGNodeProperties usingVisualBounds="true"/>
          <y:SVGModel svgBoundsPolicy="0">
            <y:SVGContent refid="1"/>
          </y:SVGModel>
        </y:SVGNode>
      </data>
    </node>
    <node id="n4">
      <data key="d6">
        <y:SVGNode>
          <y:Geometry height="110.04969787597656" width="236.99996948242188" x="1051.500015258789" y="82.97515106201172"/>
          <y:Fill color="#CCCCFF" transparent="false"/>
          <y:BorderStyle color="#000000" type="line" width="1.0"/>
          <y:NodeLabel alignment="center" autoSizePolicy="content" fontFamily="Dialog" fontSize="12" fontStyle="plain" hasBackgroundColor="false" hasLineColor="false" height="17.962890625" horizontalTextPosition="center" iconTextGap="4" modelName="sandwich" modelPosition="s" textColor="#000000" verticalTextPosition="bottom" visible="true" width="62.423828125" x="87.28807067871094" xml:space="preserve" y="114.04969787597656">Controller</y:NodeLabel>
          <y:SVGNodeProperties usingVisualBounds="true"/>
          <y:SVGModel svgBoundsPolicy="0">
            <y:SVGContent refid="2"/>
          </y:SVGModel>
        </y:SVGNode>
      </data>
    </node>
    <edge id="e0" source="n1" target="n0">
      <data key="d9"/>
      <data key="d10">
        <y:PolyLineEdge>
          <y:Path sx="0.0" sy="0.0" tx="0.0" ty="0.0"/>
          <y:LineStyle color="#000000" type="line" width="1.0"/>
          <y:Arrows source="none" target="standard"/>
          <y:BendStyle smoothed="false"/>
        </y:PolyLineEdge>
      </data>
    </edge>
    <edge id="e1" source="n2" target="n3">
      <data key="d9"/>
      <data key="d10">
        <y:PolyLineEdge>
          <y:Path sx="0.0" sy="0.0" tx="0.0" ty="0.0"/>
          <y:LineStyle color="#000000" type="line" width="1.0"/>
          <y:Arrows source="none" target="standard"/>
          <y:BendStyle smoothed="false"/>
        </y:PolyLineEdge>
      </data>
    </edge>
    <edge id="e2" source="n4" target="n2">
      <data key="d9"/>
      <data key="d10">
        <y:PolyLineEdge>
          <y:Path sx="0.0" sy="0.0" tx="0.0" ty="0.0"/>
          <y:LineStyle color="#000000" type="line" width="1.0"/>
          <y:Arrows source="none" target="standard"/>
          <y:BendStyle smoothed="false"/>
        </y:PolyLineEdge>
      </data>
    </edge>
    <edge id="e3" source="n4" target="n1">
      <data key="d9"/>
      <data key="d10">
        <y:PolyLineEdge>
          <y:Path sx="0.0" sy="0.0" tx="0.0" ty="0.0"/>
          <y:LineStyle color="#000000" type="line" width="1.0"/>
          <y:Arrows source="none" target="standard"/>
          <y:EdgeLabel alignment="center" configuration="AutoFlippingLabel" distance="2.0" fontFamily="Dialog" fontSize="12" fontStyle="plain" hasBackgroundColor="false" hasLineColor="false" height="17.962890625" horizontalTextPosition="center" iconTextGap="4" modelName="custom" preferredPlacement="anywhere" ratio="0.5" textColor="#000000" verticalTextPosition="bottom" visible="true" width="117.033203125" x="-399.4732333021302" xml:space="preserve" y="50.18248631761122">Controllverbindung<y:LabelModel><y:SmartEdgeLabelModel autoRotationEnabled="false" defaultAngle="0.0" defaultDistance="10.0"/></y:LabelModel><y:ModelParameter><y:SmartEdgeLabelModelParameter angle="0.0" distance="30.0" distanceToCenter="true" position="right" ratio="0.5" segment="0"/></y:ModelParameter><y:PreferredPlacementDescriptor angle="0.0" angleOffsetOnRightSide="0" angleReference="absolute" angleRotationOnRightSide="co" distance="-1.0" frozen="true" placement="anywhere" side="anywhere" sideReference="relative_to_edge_flow"/></y:EdgeLabel>
          <y:BendStyle smoothed="false"/>
        </y:PolyLineEdge>
      </data>
    </edge>
  </graph>
  <data key="d7">
    <y:Resources>
      <y:Resource id="1" xml:space="preserve">&lt;?xml version="1.0" encoding="utf-8"?&gt;
&lt;svg version="1.1"
	 xmlns="http://www.w3.org/2000/svg" xmlns:xlink="http://www.w3.org/1999/xlink"
	 x="0px" y="0px" width="41px" height="48px" viewBox="-0.875 -0.887 41 48" enable-background="new -0.875 -0.887 41 48"
	 xml:space="preserve"&gt;
&lt;defs&gt;
&lt;/defs&gt;
&lt;linearGradient id="SVGID_1_" gradientUnits="userSpaceOnUse" x1="642.8008" y1="-979.1445" x2="682.0508" y2="-979.1445" gradientTransform="matrix(1 0 0 -1 -642.8008 -939.4756)"&gt;
	&lt;stop  offset="0" style="stop-color:#3C89C9"/&gt;
	&lt;stop  offset="0.1482" style="stop-color:#60A6DD"/&gt;
	&lt;stop  offset="0.3113" style="stop-color:#81C1F0"/&gt;
	&lt;stop  offset="0.4476" style="stop-color:#95D1FB"/&gt;
	&lt;stop  offset="0.5394" style="stop-color:#9CD7FF"/&gt;
	&lt;stop  offset="0.636" style="stop-color:#98D4FD"/&gt;
	&lt;stop  offset="0.7293" style="stop-color:#8DCAF6"/&gt;
	&lt;stop  offset="0.8214" style="stop-color:#79BBEB"/&gt;
	&lt;stop  offset="0.912" style="stop-color:#5EA5DC"/&gt;
	&lt;stop  offset="1" style="stop-color:#3C89C9"/&gt;
&lt;/linearGradient&gt;
&lt;path fill="url(#SVGID_1_)" d="M19.625,36.763C8.787,36.763,0,34.888,0,32.575v10c0,2.313,8.787,4.188,19.625,4.188
	c10.839,0,19.625-1.875,19.625-4.188v-10C39.25,34.888,30.464,36.763,19.625,36.763z"/&gt;
&lt;linearGradient id="SVGID_2_" gradientUnits="userSpaceOnUse" x1="642.8008" y1="-973.1445" x2="682.0508" y2="-973.1445" gradientTransform="matrix(1 0 0 -1 -642.8008 -939.4756)"&gt;
	&lt;stop  offset="0" style="stop-color:#9CD7FF"/&gt;
	&lt;stop  offset="0.0039" style="stop-color:#9DD7FF"/&gt;
	&lt;stop  offset="0.2273" style="stop-color:#BDE5FF"/&gt;
	&lt;stop  offset="0.4138" style="stop-color:#D1EEFF"/&gt;
	&lt;stop  offset="0.5394" style="stop-color:#D9F1FF"/&gt;
	&lt;stop  offset="0.6155" style="stop-color:#D5EFFE"/&gt;
	&lt;stop  offset="0.6891" style="stop-color:#C9E7FA"/&gt;
	&lt;stop  offset="0.7617" style="stop-color:#B6DAF3"/&gt;
	&lt;stop  offset="0.8337" style="stop-color:#9AC8EA"/&gt;
	&lt;stop  offset="0.9052" style="stop-color:#77B0DD"/&gt;
	&lt;stop  offset="0.9754" style="stop-color:#4D94CF"/&gt;
	&lt;stop  offset="1" style="stop-color:#3C89C9"/&gt;
&lt;/linearGradient&gt;
&lt;path fill="url(#SVGID_2_)" d="M19.625,36.763c10.839,0,19.625-1.875,19.625-4.188l-1.229-2c0,2.168-8.235,3.927-18.396,3.927
	c-9.481,0-17.396-1.959-18.396-3.927l-1.229,2C0,34.888,8.787,36.763,19.625,36.763z"/&gt;
&lt;path fill="#3C89C9" d="M19.625,26.468c10.16,0,19.625,2.775,19.625,2.775c-0.375,2.721-5.367,5.438-19.554,5.438
	c-12.125,0-18.467-2.484-19.541-4.918C-0.127,29.125,9.465,26.468,19.625,26.468z"/&gt;
&lt;linearGradient id="SVGID_3_" gradientUnits="userSpaceOnUse" x1="642.8008" y1="-965.6948" x2="682.0508" y2="-965.6948" gradientTransform="matrix(1 0 0 -1 -642.8008 -939.4756)"&gt;
	&lt;stop  offset="0" style="stop-color:#3C89C9"/&gt;
	&lt;stop  offset="0.1482" style="stop-color:#60A6DD"/&gt;
	&lt;stop  offset="0.3113" style="stop-color:#81C1F0"/&gt;
	&lt;stop  offset="0.4476" style="stop-color:#95D1FB"/&gt;
	&lt;stop  offset="0.5394" style="stop-color:#9CD7FF"/&gt;
	&lt;stop  offset="0.636" style="stop-color:#98D4FD"/&gt;
	&lt;stop  offset="0.7293" style="stop-color:#8DCAF6"/&gt;
	&lt;stop  offset="0.8214" style="stop-color:#79BBEB"/&gt;
	&lt;stop  offset="0.912" style="stop-color:#5EA5DC"/&gt;
	&lt;stop  offset="1" style="stop-color:#3C89C9"/&gt;
&lt;/linearGradient&gt;
&lt;path fill="url(#SVGID_3_)" d="M19.625,23.313C8.787,23.313,0,21.438,0,19.125v10c0,2.313,8.787,4.188,19.625,4.188
	c10.839,0,19.625-1.875,19.625-4.188v-10C39.25,21.438,30.464,23.313,19.625,23.313z"/&gt;
&lt;linearGradient id="SVGID_4_" gradientUnits="userSpaceOnUse" x1="642.8008" y1="-959.6948" x2="682.0508" y2="-959.6948" gradientTransform="matrix(1 0 0 -1 -642.8008 -939.4756)"&gt;
	&lt;stop  offset="0" style="stop-color:#9CD7FF"/&gt;
	&lt;stop  offset="0.0039" style="stop-color:#9DD7FF"/&gt;
	&lt;stop  offset="0.2273" style="stop-color:#BDE5FF"/&gt;
	&lt;stop  offset="0.4138" style="stop-color:#D1EEFF"/&gt;
	&lt;stop  offset="0.5394" style="stop-color:#D9F1FF"/&gt;
	&lt;stop  offset="0.6155" style="stop-color:#D5EFFE"/&gt;
	&lt;stop  offset="0.6891" style="stop-color:#C9E7FA"/&gt;
	&lt;stop  offset="0.7617" style="stop-color:#B6DAF3"/&gt;
	&lt;stop  offset="0.8337" style="stop-color:#9AC8EA"/&gt;
	&lt;stop  offset="0.9052" style="stop-color:#77B0DD"/&gt;
	&lt;stop  offset="0.9754" style="stop-color:#4D94CF"/&gt;
	&lt;stop  offset="1" style="stop-color:#3C89C9"/&gt;
&lt;/linearGradient&gt;
&lt;path fill="url(#SVGID_4_)" d="M19.625,23.313c10.839,0,19.625-1.875,19.625-4.188l-1.229-2c0,2.168-8.235,3.926-18.396,3.926
	c-9.481,0-17.396-1.959-18.396-3.926l-1.229,2C0,21.438,8.787,23.313,19.625,23.313z"/&gt;
&lt;path fill="#3C89C9" d="M19.476,13.019c10.161,0,19.625,2.775,19.625,2.775c-0.375,2.721-5.367,5.438-19.555,5.438
	c-12.125,0-18.467-2.485-19.541-4.918C-0.277,15.674,9.316,13.019,19.476,13.019z"/&gt;
&lt;linearGradient id="SVGID_5_" gradientUnits="userSpaceOnUse" x1="642.8008" y1="-952.4946" x2="682.0508" y2="-952.4946" gradientTransform="matrix(1 0 0 -1 -642.8008 -939.4756)"&gt;
	&lt;stop  offset="0" style="stop-color:#3C89C9"/&gt;
	&lt;stop  offset="0.1482" style="stop-color:#60A6DD"/&gt;
	&lt;stop  offset="0.3113" style="stop-color:#81C1F0"/&gt;
	&lt;stop  offset="0.4476" style="stop-color:#95D1FB"/&gt;
	&lt;stop  offset="0.5394" style="stop-color:#9CD7FF"/&gt;
	&lt;stop  offset="0.636" style="stop-color:#98D4FD"/&gt;
	&lt;stop  offset="0.7293" style="stop-color:#8DCAF6"/&gt;
	&lt;stop  offset="0.8214" style="stop-color:#79BBEB"/&gt;
	&lt;stop  offset="0.912" style="stop-color:#5EA5DC"/&gt;
	&lt;stop  offset="1" style="stop-color:#3C89C9"/&gt;
&lt;/linearGradient&gt;
&lt;path fill="url(#SVGID_5_)" d="M19.625,10.113C8.787,10.113,0,8.238,0,5.925v10c0,2.313,8.787,4.188,19.625,4.188
	c10.839,0,19.625-1.875,19.625-4.188v-10C39.25,8.238,30.464,10.113,19.625,10.113z"/&gt;
&lt;linearGradient id="SVGID_6_" gradientUnits="userSpaceOnUse" x1="642.8008" y1="-946.4946" x2="682.0508" y2="-946.4946" gradientTransform="matrix(1 0 0 -1 -642.8008 -939.4756)"&gt;
	&lt;stop  offset="0" style="stop-color:#9CD7FF"/&gt;
	&lt;stop  offset="0.0039" style="stop-color:#9DD7FF"/&gt;
	&lt;stop  offset="0.2273" style="stop-color:#BDE5FF"/&gt;
	&lt;stop  offset="0.4138" style="stop-color:#D1EEFF"/&gt;
	&lt;stop  offset="0.5394" style="stop-color:#D9F1FF"/&gt;
	&lt;stop  offset="0.6155" style="stop-color:#D5EFFE"/&gt;
	&lt;stop  offset="0.6891" style="stop-color:#C9E7FA"/&gt;
	&lt;stop  offset="0.7617" style="stop-color:#B6DAF3"/&gt;
	&lt;stop  offset="0.8337" style="stop-color:#9AC8EA"/&gt;
	&lt;stop  offset="0.9052" style="stop-color:#77B0DD"/&gt;
	&lt;stop  offset="0.9754" style="stop-color:#4D94CF"/&gt;
	&lt;stop  offset="1" style="stop-color:#3C89C9"/&gt;
&lt;/linearGradient&gt;
&lt;path fill="url(#SVGID_6_)" d="M19.625,10.113c10.839,0,19.625-1.875,19.625-4.188l-1.229-2c0,2.168-8.235,3.926-18.396,3.926
	c-9.481,0-17.396-1.959-18.396-3.926L0,5.925C0,8.238,8.787,10.113,19.625,10.113z"/&gt;
&lt;linearGradient id="SVGID_7_" gradientUnits="userSpaceOnUse" x1="644.0293" y1="-943.4014" x2="680.8223" y2="-943.4014" gradientTransform="matrix(1 0 0 -1 -642.8008 -939.4756)"&gt;
	&lt;stop  offset="0" style="stop-color:#9CD7FF"/&gt;
	&lt;stop  offset="1" style="stop-color:#3C89C9"/&gt;
&lt;/linearGradient&gt;
&lt;ellipse fill="url(#SVGID_7_)" cx="19.625" cy="3.926" rx="18.396" ry="3.926"/&gt;
&lt;path opacity="0.24" fill="#FFFFFF" enable-background="new    " d="M31.04,45.982c0,0-4.354,0.664-7.29,0.781
	c-3.125,0.125-8.952,0-8.952,0l-2.384-10.292l0.044-2.108l-1.251-1.154L9.789,23.024l-0.082-0.119L9.5,20.529l-1.65-1.254
	L5.329,8.793c0,0,4.213,0.903,7.234,1.07s8.375,0.25,8.375,0.25l3,9.875l-0.25,1.313l1.063,2.168l2.312,9.645l-0.521,1.416
	l1.46,1.834L31.04,45.982z"/&gt;
&lt;/svg&gt;
</y:Resource>
      <y:Resource id="2" xml:space="preserve">&lt;?xml version="1.0" encoding="UTF-8" standalone="no"?&gt;
&lt;!-- Created with Inkscape (http://www.inkscape.org/) --&gt;
&lt;svg
    xmlns:inkscape="http://www.inkscape.org/namespaces/inkscape"
    xmlns:rdf="http://www.w3.org/1999/02/22-rdf-syntax-ns#"
    xmlns="http://www.w3.org/2000/svg"
    xmlns:sodipodi="http://sodipodi.sourceforge.net/DTD/sodipodi-0.dtd"
    xmlns:cc="http://creativecommons.org/ns#"
    xmlns:xlink="http://www.w3.org/1999/xlink"
    xmlns:dc="http://purl.org/dc/elements/1.1/"
    xmlns:svg="http://www.w3.org/2000/svg"
    xmlns:ns1="http://sozi.baierouge.fr"
    id="svg2"
    sodipodi:docname="virtual-machine.svg"
    viewBox="0 0 542.82 204.98"
    version="1.1"
    inkscape:version="0.48.1 r9760"
  &gt;
  &lt;defs
      id="defs4"
    &gt;
    &lt;pattern
        id="pattern5300"
        xlink:href="#Strips1_1"
        patternTransform="matrix(10 0 0 10 279.15 .086657)"
        inkscape:collect="always"
    /&gt;
    &lt;pattern
        id="Strips1_1"
        height="1"
        width="2"
        patternUnits="userSpaceOnUse"
        patternTransform="translate(0) scale(10)"
        inkscape:stockid="Stripes 1:1"
        inkscape:collect="always"
      &gt;
      &lt;rect
          id="rect4583"
          style="fill:black"
          height="2"
          width="1"
          y="-.5"
          x="0"
      /&gt;
    &lt;/pattern
    &gt;
  &lt;/defs
  &gt;
  &lt;sodipodi:namedview
      id="base"
      bordercolor="#666666"
      inkscape:pageshadow="2"
      inkscape:window-y="24"
      fit-margin-left="0"
      pagecolor="#ffffff"
      inkscape:window-height="1003"
      inkscape:window-maximized="1"
      inkscape:zoom="0.98994949"
      inkscape:window-x="0"
      showgrid="true"
      borderopacity="1.0"
      inkscape:current-layer="layer1"
      inkscape:cx="37.045735"
      inkscape:cy="122.31049"
      fit-margin-top="0"
      fit-margin-right="0"
      fit-margin-bottom="0"
      inkscape:window-width="1920"
      inkscape:pageopacity="0.0"
      inkscape:document-units="px"
    &gt;
    &lt;inkscape:grid
        id="grid5305"
        enabled="true"
        visible="true"
        snapvisiblegridlinesonly="true"
        type="xygrid"
        empspacing="5"
    /&gt;
  &lt;/sodipodi:namedview
  &gt;
  &lt;g
      id="layer1"
      inkscape:label="Layer 1"
      inkscape:groupmode="layer"
      transform="translate(-34.043 -294.26)"
    &gt;
    &lt;path
        id="rect5302"
        sodipodi:nodetypes="cssssc"
        style="stroke:#000000;stroke-width:6.2;fill:#d9d7d9"
        inkscape:connector-curvature="0"
        d="m39 422.36 44.036-95.268c2.8225-6.1064 5.4157-12.143 12.143-12.143h434.32c6.7271 0 10.101 5.7332 12.143 12.143l30.36 95.27"
    /&gt;
    &lt;rect
        id="rect3084"
        style="stroke-linejoin:round;stroke:#000000;stroke-linecap:round;stroke-width:6.2;fill:#b9baba"
        ry="12.143"
        height="79.495"
        width="536.62"
        y="416.65"
        x="37.143"
    /&gt;
    &lt;path
        id="path3856"
        sodipodi:rx="22.142857"
        sodipodi:ry="22.142857"
        style="stroke-linejoin:round;stroke:#000000;stroke-linecap:round;stroke-width:6.2;fill:#f1f3f3"
        sodipodi:type="arc"
        d="m315.71 460.22c0 12.229-9.9137 22.143-22.143 22.143s-22.143-9.9137-22.143-22.143 9.9137-22.143 22.143-22.143 22.143 9.9137 22.143 22.143z"
        transform="translate(10 -1.4286)"
        sodipodi:cy="460.21933"
        sodipodi:cx="293.57144"
    /&gt;
    &lt;rect
        id="rect3860"
        style="stroke-linejoin:round;stroke:#0000f1;stroke-linecap:round;stroke-width:5.8;fill:#f1f3f3"
        ry="4.2857"
        height="8.5714"
        width="30.714"
        y="454.72"
        x="288.07"
    /&gt;
    &lt;rect
        id="rect3862"
        style="fill:url(#Strips1_1)"
        ry="4.2857"
        height="48.571"
        width="211.43"
        y="433.79"
        x="58.571"
    /&gt;
    &lt;rect
        id="rect5298"
        style="fill:url(#pattern5300)"
        ry="4.2857"
        height="48.571"
        width="211.43"
        y="433.88"
        x="337.72"
    /&gt;
    &lt;path
        id="path5307"
        style="stroke:#000000;stroke-width:1px;fill:none"
        inkscape:connector-curvature="0"
        d="m230 322.36-10 90"
    /&gt;
    &lt;path
        id="path5309"
        style="stroke:#000000;stroke-width:1px;fill:none"
        inkscape:connector-curvature="0"
        d="m380 322.36 10 90"
    /&gt;
    &lt;path
        id="path5311"
        style="stroke:#000000;stroke-width:1px;fill:none"
        inkscape:connector-curvature="0"
        d="m75 362.36h470"
    /&gt;
    &lt;g
        id="g5319"
        style="fill:#5bd92b"
        transform="translate(-25 87)"
      &gt;
      &lt;path
          id="rect5315"
          d="m107 243.36 10.857-20.857c3.1-5.96 5.41-12.14 12.14-12.14h105.71c6.7272 0 12.552 5.4282 12.143 12.143l-2.85 46.86"
          sodipodi:nodetypes="cssssc"
          style="stroke-linejoin:round;stroke:#000000;stroke-linecap:round;stroke-width:6.2;fill:#5bd92b"
          inkscape:connector-curvature="0"
      /&gt;
      &lt;path
          id="rect5313"
          d="m117.14 237.36h115.71c6.7272 0 12.143 5.4157 12.143 12.143v20.714h-140v-20.714c0-6.7271 5.4157-12.143 12.143-12.143z"
          sodipodi:nodetypes="sssccss"
          style="stroke-linejoin:round;stroke:#000000;stroke-linecap:round;stroke-width:6.2;fill:#5bd92b"
          inkscape:connector-curvature="0"
      /&gt;
    &lt;/g
    &gt;
  &lt;/g
  &gt;
  &lt;metadata
    &gt;
    &lt;rdf:RDF
      &gt;
      &lt;cc:Work
        &gt;
        &lt;dc:format
          &gt;image/svg+xml&lt;/dc:format
        &gt;
        &lt;dc:type
            rdf:resource="http://purl.org/dc/dcmitype/StillImage"
        /&gt;
        &lt;cc:license
            rdf:resource="http://creativecommons.org/licenses/publicdomain/"
        /&gt;
        &lt;dc:publisher
          &gt;
          &lt;cc:Agent
              rdf:about="http://openclipart.org/"
            &gt;
            &lt;dc:title
              &gt;Openclipart&lt;/dc:title
            &gt;
          &lt;/cc:Agent
          &gt;
        &lt;/dc:publisher
        &gt;
        &lt;dc:title
          &gt;Virtual Machine&lt;/dc:title
        &gt;
        &lt;dc:date
          &gt;2012-01-17T23:07:11&lt;/dc:date
        &gt;
        &lt;dc:description
          &gt;A representation of a single virtual machine running on a server&lt;/dc:description
        &gt;
        &lt;dc:source
          &gt;https://openclipart.org/detail/167197/virtual-machine-by-damyon&lt;/dc:source
        &gt;
        &lt;dc:creator
          &gt;
          &lt;cc:Agent
            &gt;
            &lt;dc:title
              &gt;damyon&lt;/dc:title
            &gt;
          &lt;/cc:Agent
          &gt;
        &lt;/dc:creator
        &gt;
        &lt;dc:subject
          &gt;
          &lt;rdf:Bag
            &gt;
            &lt;rdf:li
              &gt;Computer&lt;/rdf:li
            &gt;
            &lt;rdf:li
              &gt;IT&lt;/rdf:li
            &gt;
            &lt;rdf:li
              &gt;Network&lt;/rdf:li
            &gt;
            &lt;rdf:li
              &gt;Server&lt;/rdf:li
            &gt;
            &lt;rdf:li
              &gt;Virtual Machine&lt;/rdf:li
            &gt;
          &lt;/rdf:Bag
          &gt;
        &lt;/dc:subject
        &gt;
      &lt;/cc:Work
      &gt;
      &lt;cc:License
          rdf:about="http://creativecommons.org/licenses/publicdomain/"
        &gt;
        &lt;cc:permits
            rdf:resource="http://creativecommons.org/ns#Reproduction"
        /&gt;
        &lt;cc:permits
            rdf:resource="http://creativecommons.org/ns#Distribution"
        /&gt;
        &lt;cc:permits
            rdf:resource="http://creativecommons.org/ns#DerivativeWorks"
        /&gt;
      &lt;/cc:License
      &gt;
    &lt;/rdf:RDF
    &gt;
  &lt;/metadata
  &gt;
&lt;/svg
&gt;
</y:Resource>
    </y:Resources>
  </data>
</graphml>
